{
  "tests" : [ {
    "name" : "unos.gspec",
    "startedAt" : 1573654155761,
    "endedAt" : 1573654160070,
    "failed" : true,
    "statistic" : {
      "passed" : 5,
      "errors" : 1,
      "warnings" : 0,
      "total" : 6
    },
    "testId" : "1-unos.gspec",
    "duration" : 4309,
    "failed" : true
  } ]
}